…
### Predict on the Dataset

``` r
bikes_aug$pred <- predict(object = bike_model, 
                          newdata = as.matrix(bikes_aug_treat))
```

Look at Results
===============

``` r
(bikes_aug)
```

    ## # A tibble: 744 x 15
    ##       X1    hr holiday workingday weathersit  temp atemp   hum windspeed
    ##    <dbl> <dbl> <lgl>   <lgl>      <chr>      <dbl> <dbl> <dbl>     <dbl>
    ##  1     1     0 FALSE   TRUE       Clear to …  0.68 0.636  0.79    0.164 
    ##  2     2     1 FALSE   TRUE       Clear to …  0.66 0.606  0.83    0.0896
    ##  3     3     2 FALSE   TRUE       Clear to …  0.64 0.576  0.83    0.104 
    ##  4     4     3 FALSE   TRUE       Clear to …  0.64 0.576  0.83    0.104 
    ##  5     5     4 FALSE   TRUE       Misty       0.64 0.591  0.78    0.134 
    ##  6     6     5 FALSE   TRUE       Misty       0.64 0.591  0.78    0.134 
    ##  7     7     6 FALSE   TRUE       Clear to …  0.64 0.591  0.78    0.134 
    ##  8     8     7 FALSE   TRUE       Misty       0.64 0.576  0.83    0.134 
    ##  9     9     8 FALSE   TRUE       Misty       0.66 0.606  0.78    0.194 
    ## 10    10     9 FALSE   TRUE       Misty       0.68 0.636  0.74    0.0896
    ## # … with 734 more rows, and 6 more variables: cnt <dbl>, instant <dbl>,
    ## #   mnth <dbl>, yr <dbl>, hr_new <fct>, pred <dbl>
…
