…
What is printed? At the bottom, we get the Out of Bag Mean Squared Error as well as the Out of Bag R Squared value. These are estimates on how it will run on future data.

### Make Predictions

With the new model, add predictions to the bikes\_aug dataset.

``` r
# The predict() function takes a model and a new dataset. 
bikes_aug$pred <- predict(bike_model_rf, bikes_aug)$predictions

(bikes_aug %>% 
  select(cnt, pred))
```

    ## # A tibble: 744 x 2
    ##      cnt  pred
    ##    <dbl> <dbl>
    ##  1    47  57.6
    ##  2    33  27.9
    ##  3    13  34.8
    ##  4     7  31.7
    ##  5     4  40.5
    ##  6    49  50.5
    ##  7   185 136. 
    ##  8   487 256. 
    ##  9   681 411. 
    ## 10   350 375. 
    ## # … with 734 more rows
…
